%YAML 1.1
%TAG !u! tag:unity3d.com,2011:
--- !u!1045 &1
EditorBuildSettings:
  m_ObjectHideFlags: 0
  serializedVersion: 2
  m_Scenes:
  - enabled: 1
    path: Assets/SliceAndGo/Scenes/MainScene.unity
    guid: 7f8134d501ef24602a4f0bc4917ed980
  - enabled: 1
    path: Assets/SliceAndGo/Scenes/Levels/Level1.unity
    guid: 91c4ef7fa5cb147839d2466df7299a17
  - enabled: 1
    path: Assets/SliceAndGo/Scenes/Levels/Level2.unity
    guid: 1526e765f5efd47a185aaecc0242ebc3
  - enabled: 1
    path: Assets/SliceAndGo/Scenes/Levels/Level3.unity
    guid: 6b0fac934686041b6b1eb3d1e9fd0578
  - enabled: 1
    path: Assets/SliceAndGo/Scenes/Levels/Level4.unity
    guid: aa904e98ee57d4fa18e36acf76c146c6
  - enabled: 1
    path: Assets/SliceAndGo/Scenes/Levels/Level5.unity
    guid: 9010a90476f81474c858dd2685421226
  m_configObjects: {}
